^C:\LASTOVICHEK\ICAD\NAVIE\TOOLS.CPP
/c /I"C:\lastovichek\ICAD\Navie\eigen-eigen-6b38706d90a9" /Zi /nologo /W3 /WX- /sdl /O2 /Oi /Oy- /GL /D _MBCS /Gm- /EHsc /MD /GS /Gy /fp:precise /Zc:wchar_t /Zc:forScope /Fo"RELEASE\\" /Fd"RELEASE\VC120.PDB" /Gd /TP /analyze- C:\LASTOVICHEK\ICAD\NAVIE\TOOLS.CPP
^C:\LASTOVICHEK\ICAD\NAVIE\NAVIE.CPP
/c /I"C:\lastovichek\ICAD\Navie\eigen-eigen-6b38706d90a9" /Zi /nologo /W3 /WX- /sdl /O2 /Oi /Oy- /GL /D _MBCS /Gm- /EHsc /MD /GS /Gy /fp:precise /Zc:wchar_t /Zc:forScope /Fo"RELEASE\\" /Fd"RELEASE\VC120.PDB" /Gd /TP /analyze- C:\LASTOVICHEK\ICAD\NAVIE\NAVIE.CPP
^C:\LASTOVICHEK\ICAD\NAVIE\MAIN.CPP
/c /I"C:\lastovichek\ICAD\Navie\eigen-eigen-6b38706d90a9" /Zi /nologo /W3 /WX- /sdl /O2 /Oi /Oy- /GL /D _MBCS /Gm- /EHsc /MD /GS /Gy /fp:precise /Zc:wchar_t /Zc:forScope /Fo"RELEASE\\" /Fd"RELEASE\VC120.PDB" /Gd /TP /analyze- C:\LASTOVICHEK\ICAD\NAVIE\MAIN.CPP
