^C:\LASTOVICHEK\ICAD\NAVIE\DEBUG\MAIN.OBJ|C:\LASTOVICHEK\ICAD\NAVIE\DEBUG\NAVIE.OBJ|C:\LASTOVICHEK\ICAD\NAVIE\DEBUG\TOOLS.OBJ
C:\LASTOVICHEK\ICAD\DEBUG\NAVIE.ILK
C:\LASTOVICHEK\ICAD\DEBUG\NAVIE.EXE
C:\LASTOVICHEK\ICAD\DEBUG\NAVIE.PDB
